<?xml version="1.0" encoding="UTF-8"?>
<svg width="18px" height="18px" viewBox="0 0 18 18" version="1.1" xmlns="http://www.w3.org/2000/svg" xmlns:xlink="http://www.w3.org/1999/xlink">
    <!-- Generator: Sketch 49.3 (51167) - http://www.bohemiancoding.com/sketch -->
    <title>image-02</title>
    <desc>Created with Sketch.</desc>
    <defs></defs>
    <g id="design" stroke="none" stroke-width="1" fill="none" fill-rule="evenodd">
        <g id="layout-desktop" transform="translate(-623.000000, -849.000000)">
            <g id="Followers" transform="translate(623.000000, 849.000000)">
                <g id="image-02" transform="translate(1.000000, 1.000000)">
                    <polyline id="Shape" stroke="#657786" stroke-width="1.5" stroke-linecap="round" stroke-linejoin="round" points="0.5 12.5 4.5 8.5 7.5 11.5 11.5 6.5 15.5 10.5"></polyline>
                    <path d="M14.5,15.5 L1.5,15.5 C0.948,15.5 0.5,15.052 0.5,14.5 L0.5,1.5 C0.5,0.948 0.948,0.5 1.5,0.5 L14.5,0.5 C15.052,0.5 15.5,0.948 15.5,1.5 L15.5,14.5 C15.5,15.052 15.052,15.5 14.5,15.5 Z" id="Shape" stroke="#657786" stroke-width="1.5" stroke-linecap="round" stroke-linejoin="round"></path>
                    <circle id="Oval" fill="#657786" fill-rule="nonzero" cx="6.5" cy="4.5" r="1.5"></circle>
                </g>
            </g>
        </g>
    </g>
</svg>
